…
    ## date created (size, mb): 2024-05-18 14:02:38.87762 (3.896)

    ## file min/max dates: 1949-10-01 / 2024-05-31

    ## using cached file: /Users/yu/Library/Caches/org.R-project.R/R/rnoaa/noaa_ghcnd/USS0023B17S.dly

    ## date created (size, mb): 2024-05-18 14:02:43.732044 (1.022)

    ## file min/max dates: 1999-09-01 / 2024-05-31

``` r
weather_df
```

    ## # A tibble: 3,285 × 7
    ##    name           id          date        prcp  tmax  tmin month     
    ##    <chr>          <chr>       <date>     <dbl> <dbl> <dbl> <date>    
    ##  1 CentralPark_NY USW00094728 2021-01-01   157   4.4   0.6 2021-01-01
    ##  2 CentralPark_NY USW00094728 2021-01-02    13  10.6   2.2 2021-01-01
    ##  3 CentralPark_NY USW00094728 2021-01-03    56   3.3   1.1 2021-01-01
    ##  4 CentralPark_NY USW00094728 2021-01-04     5   6.1   1.7 2021-01-01
    ##  5 CentralPark_NY USW00094728 2021-01-05     0   5.6   2.2 2021-01-01
    ##  6 CentralPark_NY USW00094728 2021-01-06     0   5     1.1 2021-01-01
    ##  7 CentralPark_NY USW00094728 2021-01-07     0   5    -1   2021-01-01
    ##  8 CentralPark_NY USW00094728 2021-01-08     0   2.8  -2.7 2021-01-01
    ##  9 CentralPark_NY USW00094728 2021-01-09     0   2.8  -4.3 2021-01-01
    ## 10 CentralPark_NY USW00094728 2021-01-10     0   5    -1.6 2021-01-01
    ## # ℹ 3,275 more rows

month = lubridate::floor_date(date, unit = “month”)) : round date to the
month

## ‘group_by’

``` r
weather_df %>% 
  group_by(name, month) %>% 
  ungroup(month)
```

    ## # A tibble: 3,285 × 7
    ## # Groups:   name [3]
    ##    name           id          date        prcp  tmax  tmin month     
    ##    <chr>          <chr>       <date>     <dbl> <dbl> <dbl> <date>    
    ##  1 CentralPark_NY USW00094728 2021-01-01   157   4.4   0.6 2021-01-01
    ##  2 CentralPark_NY USW00094728 2021-01-02    13  10.6   2.2 2021-01-01
    ##  3 CentralPark_NY USW00094728 2021-01-03    56   3.3   1.1 2021-01-01
    ##  4 CentralPark_NY USW00094728 2021-01-04     5   6.1   1.7 2021-01-01
    ##  5 CentralPark_NY USW00094728 2021-01-05     0   5.6   2.2 2021-01-01
    ##  6 CentralPark_NY USW00094728 2021-01-06     0   5     1.1 2021-01-01
    ##  7 CentralPark_NY USW00094728 2021-01-07     0   5    -1   2021-01-01
    ##  8 CentralPark_NY USW00094728 2021-01-08     0   2.8  -2.7 2021-01-01
    ##  9 CentralPark_NY USW00094728 2021-01-09     0   2.8  -4.3 2021-01-01
    ## 10 CentralPark_NY USW00094728 2021-01-10     0   5    -1.6 2021-01-01
    ## # ℹ 3,275 more rows

## counting things

count months/ name observations

``` r
weather_df %>% 
  group_by(name, month) %>% 
  summarize(n_obs = n())
```

    ## `summarise()` has grouped output by 'name'. You can override using the
    ## `.groups` argument.

    ## # A tibble: 108 × 3
    ## # Groups:   name [3]
    ##    name           month      n_obs
    ##    <chr>          <date>     <int>
    ##  1 CentralPark_NY 2021-01-01    31
    ##  2 CentralPark_NY 2021-02-01    28
    ##  3 CentralPark_NY 2021-03-01    31
    ##  4 CentralPark_NY 2021-04-01    30
    ##  5 CentralPark_NY 2021-05-01    31
    ##  6 CentralPark_NY 2021-06-01    30
    ##  7 CentralPark_NY 2021-07-01    31
    ##  8 CentralPark_NY 2021-08-01    31
    ##  9 CentralPark_NY 2021-09-01    30
    ## 10 CentralPark_NY 2021-10-01    31
    ## # ℹ 98 more rows

n(): count the number

we can use ‘count()’

``` r
weather_df %>% 
  count(name, month, name = "n_obs")
```

    ## # A tibble: 108 × 3
    ##    name           month      n_obs
    ##    <chr>          <date>     <int>
    ##  1 CentralPark_NY 2021-01-01    31
    ##  2 CentralPark_NY 2021-02-01    28
    ##  3 CentralPark_NY 2021-03-01    31
    ##  4 CentralPark_NY 2021-04-01    30
    ##  5 CentralPark_NY 2021-05-01    31
    ##  6 CentralPark_NY 2021-06-01    30
    ##  7 CentralPark_NY 2021-07-01    31
    ##  8 CentralPark_NY 2021-08-01    31
    ##  9 CentralPark_NY 2021-09-01    30
    ## 10 CentralPark_NY 2021-10-01    31
    ## # ℹ 98 more rows
…
The result is not a data frame and not helpful

other helpful counters

``` r
weather_df %>% 
  group_by(month) %>% 
  summarize(
    n_obs = n(),
    n_days = n_distinct(date))
```

    ## # A tibble: 36 × 3
    ##    month      n_obs n_days
    ##    <date>     <int>  <int>
    ##  1 2021-01-01    93     31
    ##  2 2021-02-01    84     28
    ##  3 2021-03-01    93     31
    ##  4 2021-04-01    90     30
    ##  5 2021-05-01    93     31
    ##  6 2021-06-01    90     30
    ##  7 2021-07-01    93     31
    ##  8 2021-08-01    93     31
    ##  9 2021-09-01    90     30
    ## 10 2021-10-01    93     31
    ## # ℹ 26 more rows
…
``` r
weather_df %>% 
  group_by(name, month) %>% 
  summarize(
    mean_tmax = mean(tmax, na.rm = TRUE),
    mean_prcp = mean(prcp, na.rm = TRUE),
    median_tmin = median(tmin, na.rm = TRUE)
  )
```

    ## `summarise()` has grouped output by 'name'. You can override using the
    ## `.groups` argument.

    ## # A tibble: 108 × 5
    ## # Groups:   name [3]
    ##    name           month      mean_tmax mean_prcp median_tmin
    ##    <chr>          <date>         <dbl>     <dbl>       <dbl>
    ##  1 CentralPark_NY 2021-01-01      4.27      18.9       -0.5 
    ##  2 CentralPark_NY 2021-02-01      3.87      46.6       -1.85
    ##  3 CentralPark_NY 2021-03-01     12.3       28.0        5   
    ##  4 CentralPark_NY 2021-04-01     17.6       22.8        8.05
    ##  5 CentralPark_NY 2021-05-01     22.1       35.7       11.1 
    ##  6 CentralPark_NY 2021-06-01     28.1       22.2       18.0 
    ##  7 CentralPark_NY 2021-07-01     28.4       90.9       21.1 
    ##  8 CentralPark_NY 2021-08-01     28.8       84.5       22.2 
    ##  9 CentralPark_NY 2021-09-01     24.8       84.9       17.5 
    ## 10 CentralPark_NY 2021-10-01     19.9       43.1       13.9 
    ## # ℹ 98 more rows
…
Suppose you want to summarize many columns.

``` r
weather_df %>% 
  group_by(name, month) %>% 
  summarize(across(prcp:tmin, mean))
```

    ## `summarise()` has grouped output by 'name'. You can override using the
    ## `.groups` argument.

    ## # A tibble: 108 × 5
    ## # Groups:   name [3]
    ##    name           month       prcp  tmax  tmin
    ##    <chr>          <date>     <dbl> <dbl> <dbl>
    ##  1 CentralPark_NY 2021-01-01  18.9  4.27 -1.15
    ##  2 CentralPark_NY 2021-02-01  46.6  3.87 -1.39
    ##  3 CentralPark_NY 2021-03-01  28.0 12.3   3.1 
    ##  4 CentralPark_NY 2021-04-01  22.8 17.6   7.48
    ##  5 CentralPark_NY 2021-05-01  35.7 22.1  12.2 
    ##  6 CentralPark_NY 2021-06-01  22.2 28.1  18.9 
    ##  7 CentralPark_NY 2021-07-01  90.9 28.4  20.6 
    ##  8 CentralPark_NY 2021-08-01  84.5 28.8  21.8 
    ##  9 CentralPark_NY 2021-09-01  84.9 24.8  17.8 
    ## 10 CentralPark_NY 2021-10-01  43.1 19.9  13.4 
    ## # ℹ 98 more rows
…
what about window function

ranking

``` r
weather_df %>% 
  group_by(name, month) %>% 
  mutate(temp_rank = min_rank(tmax)) %>% 
  filter(temp_rank == 1)
```

    ## # A tibble: 139 × 8
    ## # Groups:   name, month [108]
    ##    name           id          date        prcp  tmax  tmin month      temp_rank
    ##    <chr>          <chr>       <date>     <dbl> <dbl> <dbl> <date>         <int>
    ##  1 CentralPark_NY USW00094728 2021-01-29     0  -3.8  -9.9 2021-01-01         1
    ##  2 CentralPark_NY USW00094728 2021-02-08     0  -1.6  -8.2 2021-02-01         1
    ##  3 CentralPark_NY USW00094728 2021-03-02     0   0.6  -6   2021-03-01         1
    ##  4 CentralPark_NY USW00094728 2021-04-02     0   3.9  -2.1 2021-04-01         1
    ##  5 CentralPark_NY USW00094728 2021-05-29   117  10.6   8.3 2021-05-01         1
    ##  6 CentralPark_NY USW00094728 2021-05-30   226  10.6   8.3 2021-05-01         1
    ##  7 CentralPark_NY USW00094728 2021-06-11     0  20.6  16.7 2021-06-01         1
    ##  8 CentralPark_NY USW00094728 2021-06-12     0  20.6  16.7 2021-06-01         1
    ##  9 CentralPark_NY USW00094728 2021-07-03    86  18.9  15   2021-07-01         1
    ## 10 CentralPark_NY USW00094728 2021-08-04     0  24.4  19.4 2021-08-01         1
    ## # ℹ 129 more rows
…
